SN,vendor,batch,metrox,metroy,metroz,dacsetting,current,is_pass,defect,shearofbump,hybridid
123456890,IHEP,123,2.01,1.4,1.1,no,no,pass,no,no,1
123456891,Italy,1xx,1.2,1.4,1,no,no,no,no,no,2
aa123546123456,IHEP,123,2.01,1.4,1.1,no,no,pass,no,no,1
20UHCAS8890571,IHEP,x,1,2,3,,,,,,1
22,IHEP,3,4,5,,,,,,,5
112233,IHEP2,221,2.01,1.4,1.1,no,no,pass,yes,no,3
445566,Italy2,223,1.2,1.4,1,no,no,pass,no,no,4
12225,IHEP,123,2.01,1.4,1.1,no,no,pass,no,no,1
12224,Italy,1xx,1.2,1.4,1,no,no,no,no,no,2
12223,Spain,123,2.01,1.4,1.1,no,no,pass,no,no,1
